088925 Broadwood0000000baaaaaaad$81
03  Arrowtown $38
01 $24
0061 Australia$140
00852 Hong Kong.012345678901234$1111
00 Los Angelos$10
000000
031526        22
0889256287213   122
008520123456789   64
779760	 1
  002832769   	 5
001234 1   
0123456 3
0123 4
00134 5
00123456789012 9
0061234 600
0061853279  300
00611234567890 700
006112345678901 800
123456789 2
123456789012345 4
#

