-x8y+9x3-1+y
x5y+1+x3
x+1
x+y+1
x4+y7+xy56+100x3+100x3+100x3+75y84x23+y23
x+y+x2y2+x3y3
y3-3y2+3y-1
1+y+y2+y3+y4+y5+y6+y7+y8+y9+y10+y11+y12+y13+y14+y15+y16+y17+y18+y19+y20+y21+y22
100x100+100y100
100x100-100y100
57x-57x+yx34-45x+100x100-24x35+75x3y34
57x-57x+yx34-45x+100x100-24x35+75x3y34
x3+75y3
12x-100y
100x-1+50y+12x34y60+56x56y56-x2y6
25
45x45+68xy35-y12x25+100y-x25+y4x25-y100
x2-y23x24+y12x25
32x19y85-64x18y85+32x17y85-x3+x3y58+2x2-2x2y58-x+xy58
x+2x2+3x3+4x4+5x5+6x6+7x7+8x8+9x9+10x10+11x11+12x12+13x13+14x14+15x15+16x16+x50
#

