A11 1612 1720
A12 1508 1636
S16 1152 1250
S17 1048 1134
S17 1272 1326
#
S16 1288 A11 1543
S18 1202 S18 1102
S18 1202 S18 1101
S18 1202 S18 1206
S18 1202 S18 1203
S17 0902 S17 1044
S17 0906 S17 0902
S17 0902 S17 0906
S17 0905 S17 0903
S17 0903 S17 0905
S17 0903 S17 0907
S16 1100 S16 1000
S16 1101 S16 1000
#

