0 0 0 0 0 3 5.00
0 0 0 1 1 2 4.05
0 1 0 0 0 1 1.65
100 0 1 0 0 1 1.35
0 0 0 0 0 1 1.15
0 0 0 0 0 1 0.35
0 1 1 3 1 0 1.35
100 1 1 2 0 0 1.50
1 1 1 3 2 0 1.35
1 1 1 3 1 0 1.35
0 1 1 3 1 1 1.35
5 1 1 4 1 0 2.15
1 1 7 3 1 30 4.35
0 0 0 1 1 0 0.05
0 0 0 0 0 1 0.05
0 0 0 1 0 1 0.05
0 1 0 0 1 0 0.05
0 0 0 0 0 1 0.15
0 0 0 0 0 1 1.15
0 0 0 0 1 1 2.15
0 0 0 0 0 2 3.15
0 0 0 0 0 1 0.95
0 0 0 0 0 1 1.95
0 0 1 3 1 0 0.15
0 1 0 3 1 0 0.35
99 0 0 0 0 1 5.00
99 0 0 0 0 0 4.95
99 1 0 0 1 0 4.95
9  1 1 2 1 2 4.95
0 0 0 0 0 0

