A 183-5724 17 58 18 04
C 902-1234 00 00 23 59
C 652-8814 11 35 11 34
C 555-1904 18 00 17 59
C 902-1234 15 48 15 47
C 412-6666 21 48 21 47
E 555-1904 17 59 22 01
E 555-1904 18 00 17 59
E 555-1904 07 59 07 58
B 555-1904 01 52 02 52
D 322-5646 21 59 22 00
D 322-5646 08 00 08 01
A 399-1444 07 59 08 01
#

