I       383     386
I       277     415
I       293     335
I       386     492
I       149     421
I       362     27
I       190     59
I       263     426
I       40      426
I       172     236
I       211     368
I       67      429
I       282     30
I       362     123
I       67      135
I       429     302
I       22      58
I       69      167
I       393     456
I       11      42
I       229     373
I       421     419
I       284     37
I       198     324
I       315     370
I       413     26
I       91      480
I       456     373
I       362     170
I       496     281
I       305     425
I       84      327
I       336     5
I       346     229
I       313     357
I       124     395
I       82      45
I       314     367
I       434     364
I       43      250
I       87      308
I       276     178
I       288     84
I       403     151
I       254     399
I       432     60
I       176     368
I       239     12
I       226     86
I       94      39
R       295     70      344     368
R       467     101     493     247
R       317     492     483     496
R       301     280     327     401
R       365     189     429     404
R       440     229     491     287
R       97      271     485     285
R       209     427     230     454
R       497     353     497     451
R       306     183     481     471
R       28      371     120     379
R       3       19      370     362
R       208     215     480     239
R       296     223     358     306
R       346     451     441     493
R       379     488     464     496
R       341     350     480     450
R       34      264     250     362
R       487     356     494     383
R       227     365     335     426
R       432     51      441     165
R       275     407     449     408
R       358     395     477     462
R       235     293     453     313
R       143     11      434     299
M       276     404
M       443     263
M       113     38
M       106     340
M       404     318
M       128     188
M       369     417
M       417     496
M       324     243
M       470     183
M       490     499
M       272     225
M       144     90
M       5       139
M       454     286
M       169     82
M       42      464
M       197     7
M       355     304
M       348     111
M       122     328
M       299     343
M       246     68
M       340     422
M       311     310
M       105     301
M       161     230
M       378     305
M       320     236
M       444     126
M       22      465
M       208     416
M       282     258
M       424     137
M       62      124
M       100     36
M       452     399
M       379     50
M       468     71
M       473     131
M       381     430
M       433     394
M       160     163
M       199     481
M       399     496
M       459     273
M       313     168
M       190     95
M       426     466
M       84      340
M       90      184
M       376     42
M       436     107
M       445     256
M       179     418
M       387     412
M       348     172
M       159     9
M       336     210
M       342     87
M       206     301
M       213     372
M       321     255
M       319     99
M       221     404
M       439     311
M       440     167
M       205     228
M       127     150
M       484     158
M       420     224
M       422     269
M       396     81
M       130     84
M       292     472
M       172     350
M       125     385
M       222     299
M       140     42
M       398     213
M       298     190
M       24      90
M       209     81
M       319     336
M       232     155
M       494     4
M       379     269
M       273     276
M       350     255
M       360     142
M       79      384
M       493     205
M       121     67
M       4       113
M       461     254
M       326     259
M       444     202
M       202     6
M       284     21
M       342     368
#

